module practiceDB

go 1.17

require (
	github.com/BurntSushi/toml v0.4.1 // indirect
	github.com/davecgh/go-spew v1.1.1 // indirect
	github.com/gorilla/mux v1.8.0 // indirect
	github.com/pmezard/go-difflib v1.0.0 // indirect
	github.com/sirupsen/logrus v1.8.1 // indirect
	github.com/stretchr/objx v0.1.0 // indirect
	github.com/stretchr/testify v1.7.0 // indirect
	golang.org/x/sys v0.0.0-20191026070338-33540a1f6037 // indirect
	gopkg.in/yaml.v3 v3.0.0-20200313102051-9f266ea9e77c // indirect
)
